…
## Q2

Find (or make) a data file of your own, in text format. Read it into a
well-formatted data frame.

``` r
lost_pets <- read_csv("Data/Lost__found__adoptable_pets.csv")
lost_pets |>
  rename(Impound_No = `impound_no`) |>
  mutate(Record_Type = factor(Record_Type))
```

    # A tibble: 497 × 25
       Impound_No Animal_ID Data_Source           Record_Type Link  Current_Location
       <chr>      <chr>     <chr>                 <fct>       <chr> <chr>           
     1 K23-160878 A693721   Regional Animal Serv… LOST        http… LOST            
     2 K23-160863 A693693   Regional Animal Serv… FOUND       http… King County Pet…
     3 K23-161832 A695988   Regional Animal Serv… FOUND       http… In RASKC Foster…
     4 K23-161625 A695463   Regional Animal Serv… LOST        http… LOST            
     5 K23-160762 A693508   Regional Animal Serv… FOUND       http… In Public Home  
     6 K23-161424 A695093   Regional Animal Serv… LOST        http… LOST            
     7 K23-161775 A695830   Regional Animal Serv… LOST        http… LOST            
     8 K23-162160 A696624   Regional Animal Serv… FOUND       http… In Public Home  
     9 K23-160973 A693921   Regional Animal Serv… ADOPTABLE   http… King County Pet…
    10 K23-161749 A695764   Regional Animal Serv… FOUND       http… In RASKC Foster…
    # ℹ 487 more rows
    # ℹ 19 more variables: Animal_Name <chr>, animal_type <chr>, Age <chr>,
    #   Animal_Gender <chr>, Animal_Breed <chr>, Animal_Color <chr>, Date <chr>,
    #   Date_Type <chr>, Obfuscated_Address <chr>, City <chr>, State <chr>,
    #   Zip <dbl>, jurisdiction <chr>, obfuscated_latitude <dbl>,
    #   obfuscated_longitude <dbl>, Image <chr>, image_alt_text <chr>, Memo <chr>,
    #   Temperament <chr>
…
