…
How can you find all flights to those destinations?

``` r
all_flights <- top_dest |>
  left_join(flights)
sum(is.na(flights2$name))
```

    [1] 0

``` r
select(flights, dest)
```

    # A tibble: 336,776 × 1
       dest 
       <chr>
     1 IAH  
     2 IAH  
     3 MIA  
     4 BQN  
     5 ATL  
     6 ORD  
     7 FLL  
     8 IAD  
     9 MCO  
    10 ORD  
    # ℹ 336,766 more rows
…
